{
  "type": "minecraft:crafting_shapeless",
  "ingredients": [
    {
      "item": "minecraft:brown_mushroom"
    },
    {
      "item": "minecraft:warped_roots"
    }
  ],
  "result": {
    "id": "minecraft:warped_fungus",
    "count": 1
  }
}
